{
  "title": "ICG BULLION",

  "PrimaryNavItems": {
    "menu_home": {"url": "index.html", "label": "Home"},
    "menu_features": {"url": "#", "label": "Features"},
    "menu_product": {"url": "#", "label": "Product Quotes"},
    "menu_contacts": {"url": "#", "label": "Keep in Touch"}
  },

  "static_link": "#"
}